{
    "id": 999,
    "name": "The rug of the super coder creator (110001010101)",
    "description": "A very modern and avant-garde rug, featuring a faded rock.",
    "image": "https://coinclicker.io/nft/999.png",
    "price": 20,
    "properties": {
        "level": 10
    }
}